{
    "name": "gitlab",
    "description": "SSH key to acces to gitlab repository",
    "organization": 1,
    "user": null,
    "team": null,
    "credential_type": 2,
    "inputs": {
       "username": "plajusticia",
       "ssh_key_data": "-----BEGIN OPENSSH PRIVATE KEY-----\nb3BlbnNzaC1rZXktdjEAAAAABG5vbmUAAAAEbm9uZQAAAAAAAAABAAACFwAAAAdzc2gtcn\nNhAAAAAwEAAQAAAgEAtBXdNDE+j3mxpfXpHQGUWKTyOG9/zqhTJMz5TIxn2rRD6v3mF4Yy\nm9EVei87OhB1Sbi2Lef5iMVLJhlkClzDQcwAQfbf0s303wZfkDIhxBmNQ7aWi/vYPRDPxS\ntBvztAJpPLwTNGbTr4mSPJd+eCSrLRJjIQ1+XaUxyFacLFBfBsP6p7MsDCGQlpdDC8QYYo\n/+JK7pI8F4zxNnQ+F+zdWRGsewqPRv/uCAR3ZUpubW6LVGv607thoYtc0+78w+AakbvyY0\nzbzgTfHHNLMl0QDmGu6KyXS1Hy6ooQZ3jkmYLkkiRBQ6TicA24hJOmyajUFcwtQ6QI5xQY\npC9J0NWsE9aDhV7pR4jifVjvLEhSuhJevVmjWe+dnlHmtXIiDQa6CGnzbyOGhxBusttFu4\nIrKLCJ8bO71vqkNqMFvjLxx0upKMZveU6/NLmnOkn1aHEHYbRA60tHe97LC/OapBiBUZZd\nhuwB8n2PB/89A9OPyr1OFiZc8RDgWuN+jfXzCp/9VgWVsnrQxa3QOBC2XgPeLUuypMGCmZ\n+TRxJhRkZeUYbjK7PgDlaLUxibd7YH+9qDrlxfTihJO18DrI7hNzQDYjzjTDip4FPwlj2L\nV/KtM77mshEWKdDAdp6e5AFi/y3czc9xSmiqS0kTbJZuq+IKHeJ+UGe5L7bUz3VKTFhTXa\n8AAAdIxYBXZMWAV2QAAAAHc3NoLXJzYQAAAgEAtBXdNDE+j3mxpfXpHQGUWKTyOG9/zqhT\nJMz5TIxn2rRD6v3mF4Yym9EVei87OhB1Sbi2Lef5iMVLJhlkClzDQcwAQfbf0s303wZfkD\nIhxBmNQ7aWi/vYPRDPxStBvztAJpPLwTNGbTr4mSPJd+eCSrLRJjIQ1+XaUxyFacLFBfBs\nP6p7MsDCGQlpdDC8QYYo/+JK7pI8F4zxNnQ+F+zdWRGsewqPRv/uCAR3ZUpubW6LVGv607\nthoYtc0+78w+AakbvyY0zbzgTfHHNLMl0QDmGu6KyXS1Hy6ooQZ3jkmYLkkiRBQ6TicA24\nhJOmyajUFcwtQ6QI5xQYpC9J0NWsE9aDhV7pR4jifVjvLEhSuhJevVmjWe+dnlHmtXIiDQ\na6CGnzbyOGhxBusttFu4IrKLCJ8bO71vqkNqMFvjLxx0upKMZveU6/NLmnOkn1aHEHYbRA\n60tHe97LC/OapBiBUZZdhuwB8n2PB/89A9OPyr1OFiZc8RDgWuN+jfXzCp/9VgWVsnrQxa\n3QOBC2XgPeLUuypMGCmZ+TRxJhRkZeUYbjK7PgDlaLUxibd7YH+9qDrlxfTihJO18DrI7h\nNzQDYjzjTDip4FPwlj2LV/KtM77mshEWKdDAdp6e5AFi/y3czc9xSmiqS0kTbJZuq+IKHe\nJ+UGe5L7bUz3VKTFhTXa8AAAADAQABAAACAQCZ+9AHXswllmMGi3zmpoEYQwIyq3RXWqqt\nXu8UO0JaSaWBe9SQ7Ni9T0zUCyrTfVsszFpKan5+KmUVkMRv792tlyfpP5UnBaCKS0LPY2\n5n5YlbCvczfwbpQETITTKMt7ckxV+GNbfUkoYbO/R7KGPKR5h61nh8gzfptQuG4VniuC93\nSOjK/vN4wQmApmNyi6rnEbIMyNHFOWjPrRmjD5A9JtWa5+6XQSNhi6Aj5j8CJ3HPn/z7qs\n/Sd/3J4iITwr41OsYJjqCsSpIUG6mCyPx/r5sFrP45EztovOFF+KNPeBLFu2Zq1sQgGDtc\ncXw+FrQyZ0GVAt/x5scjLKQrg2j8pdUjwQjUyM6vQAVAJXF9kPEoEUq7b3l+k34YNc45qs\nIY3NorDGvpPC0fYn9+AC85pdZQP1LJ5rOsJB2UlMdiKrjN1EqU5XrfsNQnkdqyFOUjgvEt\nImD/7EG9vvAotF3FzRflxRZ/1BxhR9XCPYCSW/sUJZ2pglNCbuH1BdBMxAGjKKXLFZQxU1\n/y5q4BNlrzZSHoJt8WOXXsopmoQMZGV4TfqORUSFOTO/1TuIkC091f3dmu0gtmjKV6V0Ru\nU6ycqxF90VZ6Nx3lhDFiMyMGb47kirX/Q3igPLjyJZHotF3x9e65z6W+X5FtuhxhJfwd8a\nqTwkLWnqgxUr0D0hN1QQAAAQEAxwCwIPcNHXu3p5kZYoAWB+K9coFaX2r49cqZdP7Fk31F\nZNikUbivSok1x1T0h5nPOMBhVt5wnztzbs7P8gWR/RONS/qoJrJGy3JzTmTCwo8/LLUKEN\n46+TP1N1LaJtRqX86sojzPjKZaDKNI+RjzgyZlD3ZLb5lo/GmdMYOrz2lY8g+DL3rzRAP8\ndvtD/4TuwvvvqQwTD8B4g4LGXTuPs0oBFWA2zcspXdhPZAjsvozWi0cocAzeRRPKl1Wazq\nllCjTe4Wa1GQ/Vy5gG745Ety8HcaF5MoNOlkIT5b0UJCE3OnJdZt5QQdALsXHBZjhTiEy3\nAU7A0a0m2EwbetSliQAAAQEA4ggj+Km8a5WL7TH07hRGsi1orNFgvtA++zYM5FQguQMe9M\n8Yrq8Ab5HzrekD7pSyX0fGMX+V8vFz0OQlqyCaedtqoykMi30O1iP6pHPc/BDFlM4lGgKM\na/Y4KoPXN0Z1zBYLf2uBHgLwtyWOZpwM8MAk5WdqIsPSWCljFm40SUq3h1fve9059SPKhX\nzK1zXcwlSWEUfUQ7+qqrO2h7cq7+v653T+R2ICAj9/GHUlNivt1zWCHhCVLZ5lyDXO2mko\nbxAL6gbkkLwa1bczewMVy2Qlj2mls2fT1r9CH223SPlF+1Twie4Gms9esQZG8Sn0UnGjAX\nyMtXgb9D+Ol42iPwAAAQEAy/Y73X9IFJiDF635u1KVUQNuxsYXqRKseZR0dQhtb8SVBXpn\nzeIk7gBfY+UWrB0zg7O/Ur9XWBf7cRCNgpT6fDdXeSq8QFlzRLfiEZ5vZmvb1RdQ3uR/He\nOu+Ibq+TrP5j93IBzUa8MRqV1omeHqmkmCHL4ESP2CzkjJqP6SSZW0lZJp/6PQr9UjvCzL\nD82cj/VIDc0y+lHMASwntnkkf5RO7qmWsaqoQx3/n7xSYC6xcGgm0rALWDxEQpPPOnExBm\n9pMJ8TMyyade57TMMnRJd7AKTAAgKGMfQx63EUz04XBNCsXPzfnToUjLoWql8Uee1jDPEL\njvL9erVuANeIkQAAABBwcGFub3NAc29yaW50LmV1AQ==\n-----END OPENSSH PRIVATE KEY-----\n"

     }
}
