{
    "eula_accepted": "true",
    "company_name": "SORINT",
    "contact_email": "cizquierdo@sorint.it",
    "contact_name": "Carlos I",
    "hostname": "10f40bb6fcfd4351a24b920a473b1a1f",
    "instance_count": 10,
    "license_date": 2115025658,
    "license_key": "62d1e150c7cc631e74a775f2fd1292068efd7e1492179bd8744e71d4ad7a0b00",
    "license_type": "basic",
    "subscription_name": "Red Hat Ansible Tower, Self-Support (10 Managed Nodes)"
}
